1 Data wrangling and exploratory steps
…
            University of British Columbia

1 Data prep

Here is a preview of the data.

# A tibble: 2,966 × 37
   region region_previous province cool  multiling umultiling comf_non_eng media
   <fct>  <chr>           <fct>    <chr> <chr>     <chr>      <chr>        <chr>
 1 BC     bc              British… stro… definite… no         <NA>         extr…
 2 BC     bc              British… stro… probably… no         <NA>         impo…
 3 BC     bc              United … stro… probably… no         <NA>         extr…
 4 US     us              British… stro… probably… yes        extremely c… unim…
 5 BC     bc              Quebec   stro… probably… yes        moderately … impo…
 6 other  singapore       British… stro… probably… yes        moderately … unim…
 7 BC     bc              British… stro… probably… no         <NA>         impo…
 8 ON     on              Ontario  agree probably… no         <NA>         impo…
 9 BC     bc              British… agree definite… yes        neither com… <NA> 
10 other  <NA>            British… stro… definite… no         <NA>         impo…
# ℹ 2,956 more rows
# ℹ 29 more variables: priv <chr>, st_heard <chr>, st_descr <chr>, zed <chr>,
#   spell <chr>, spell_uni <chr>, distinct <chr>, same_ew <chr>, celebs <chr>,
#   prestige <chr>, rec_cdns <chr>, software <chr>, dictionary <chr>,
#   recog_eh <chr>, cdn_sorry <chr>, engl_able <chr>, fr_able <chr>,
#   ind_able <chr>, beyond_ef <chr>, cdn_way <chr>, age <int>, country <chr>,
#   gender <chr>, edu_comp <chr>, degree_year <chr>, eui <chr>, …
…
