3 A multi-variable standard language attitude index (SLAI)
…
1 Data prep

We update the data to include responses only from respondents with one of the following values for province:

 [1] "alberta"                   "british columbia"         
 [3] "manitoba"                  "new brunswick"            
 [5] "newfoundland and labrador" "northern territories"     
 [7] "nova scotia"               "nunavut"                  
 [9] "ontario"                   "prince edward island"     
[11] "quebec"                    "saskatchewan"             
[13] "yukon"                    

Preview of our data. We want only canadian respondents, with gender reordered.

# A tibble: 2,682 × 36
   cool    multiling umultiling comf_non_eng media priv  st_heard st_descr zed  
   <chr>   <chr>     <chr>      <chr>        <chr> <chr> <chr>    <chr>    <chr>
 1 strong… definite… no         <NA>         extr… "yes" yes      "yes bu… both 
 2 strong… probably… no         <NA>         impo… "no"  yes      "yes bu… zed  
 3 strong… probably… yes        extremely c… unim… "tha… no       "yes i … zee  
 4 strong… probably… yes        moderately … impo… "no"  yes      "yes bu… both 
 5 strong… probably… yes        moderately … unim… "tha… not sure  <NA>    zee  
 6 strong… probably… no         <NA>         impo… "tha… no        <NA>    zed  
 7 agree   probably… no         <NA>         impo… "tha… not sure  <NA>    zee  
 8 agree   definite… yes        neither com… <NA>  "tha… no        <NA>    zee  
 9 strong… definite… no         <NA>         impo… "tha… no        <NA>    zed  
10 strong… definite… no         <NA>         impo… "tha… yes      "yes bu… zed  
# ℹ 2,672 more rows
# ℹ 27 more variables: spell <chr>, spell_uni <chr>, distinct <chr>,
#   same_ew <chr>, celebs <chr>, prestige <chr>, rec_cdns <chr>,
#   software <chr>, dictionary <chr>, recog_eh <chr>, cdn_sorry <chr>,
#   engl_able <chr>, fr_able <chr>, ind_able <chr>, beyond_ef <chr>,
#   cdn_way <chr>, age <int>, country <chr>, province <chr>, gender <fct>,
#   edu_comp <chr>, degree_year <chr>, region <chr>, eui <chr>, …
…
