6 SLAI Version 2.0
…
            University of British Columbia

1 Data prep

Preview of our data. We want only canadian respondents, with gender reordered.

# A tibble: 2,484 × 36
   region gender province    cool  multiling umultiling comf_non_eng media priv 
   <fct>  <fct>  <fct>       <chr> <chr>     <chr>      <chr>        <chr> <chr>
 1 BC     female British Co… stro… definite… no         <NA>         extr… "yes"
 2 BC     female British Co… stro… probably… no         <NA>         impo… "no" 
 3 BC     male   United Sta… stro… probably… no         <NA>         extr… "tha…
 4 US     other  British Co… stro… probably… yes        extremely c… unim… "tha…
 5 BC     other  Quebec      stro… probably… yes        moderately … impo… "no" 
 6 BC     male   British Co… stro… probably… no         <NA>         impo… "tha…
 7 ON     female Ontario     agree probably… no         <NA>         impo… "tha…
 8 BC     female British Co… agree definite… yes        neither com… <NA>  "tha…
 9 MB     male   British Co… stro… definite… no         <NA>         impo… "tha…
10 AB     male   British Co… agree definite… no         <NA>         impo… "yes"
# ℹ 2,474 more rows
# ℹ 27 more variables: st_heard <chr>, st_descr <chr>, zed <chr>, spell <chr>,
#   spell_uni <chr>, distinct <chr>, same_ew <chr>, celebs <chr>,
#   prestige <chr>, rec_cdns <chr>, software <chr>, dictionary <chr>,
#   recog_eh <chr>, cdn_sorry <chr>, engl_able <chr>, fr_able <chr>,
#   ind_able <chr>, beyond_ef <chr>, cdn_way <chr>, age <int>, country <chr>,
#   edu_comp <chr>, degree_year <chr>, eui <chr>, dist_cult <chr>, eoi <chr>, …
…
