9 Zoom in on Gender
…
            University of British Columbia

1 Gender and umultiling in BC

A close-up on the two vars in one region. For our DV, we continue to focus on slai.

We shrink the data to region == "BC" only.

# A tibble: 402 × 47
   region gender province    cool  multiling umultiling comf_non_eng media priv 
   <fct>  <fct>  <fct>       <chr> <chr>     <fct>      <chr>        <chr> <chr>
 1 BC     female British Co… stro… definite… no         <NA>         extr… "yes"
 2 BC     female British Co… stro… probably… no         <NA>         impo… "no" 
 3 BC     male   United Sta… stro… probably… no         <NA>         extr… "tha…
 4 BC     other  Quebec      stro… probably… yes        moderately … impo… "no" 
 5 BC     male   British Co… stro… probably… no         <NA>         impo… "tha…
 6 BC     female British Co… agree definite… yes        neither com… <NA>  "tha…
 7 BC     female British Co… agree probably… no         <NA>         unim… "tha…
 8 BC     female British Co… stro… neutral   no         <NA>         extr… "tha…
 9 BC     female British Co… stro… probably… yes        neither com… extr… "tha…
10 BC     male   British Co… stro… neutral   yes        moderately … impo… "no" 
# ℹ 392 more rows
# ℹ 38 more variables: st_heard <chr>, st_descr <chr>, zed <chr>, spell <chr>,
#   spell_uni <chr>, distinct <chr>, same_ew <chr>, celebs <chr>,
#   prestige <chr>, rec_cdns <chr>, software <chr>, dictionary <chr>,
#   recog_eh <chr>, cdn_sorry <chr>, engl_able <chr>, fr_able <chr>,
#   ind_able <chr>, beyond_ef <chr>, cdn_way <chr>, age <int>, country <chr>,
#   edu_comp <fct>, degree_year <chr>, eui <chr>, dist_cult <chr>, eoi <chr>, …
…
- One-sided CIs: upper bound fixed at [1.00].

There is absolutely no significance in these effects.

Let’s try the other high-N region, AB.

2 Gender and umultiling in AB

Shrink the data to region == "AB" only.

# A tibble: 429 × 47
   region gender province    cool  multiling umultiling comf_non_eng media priv 
   <fct>  <fct>  <fct>       <chr> <chr>     <fct>      <chr>        <chr> <chr>
 1 AB     male   British Co… agree definite… no         <NA>         impo… "yes"
 2 AB     female British Co… stro… probably… no         <NA>         impo… "tha…
 3 AB     other  Ontario     agree definite… no         <NA>         impo… "yes"
 4 AB     female Ontario     stro… definite… yes        moderately … impo… "tha…
 5 AB     male   British Co… stro… definite… no         <NA>         impo… "no" 
 6 AB     female British Co… stro… probably… no         <NA>         impo… "tha…
 7 AB     male   British Co… stro… definite… yes        extremely c… extr… "tha…
 8 AB     female Nova Scotia stro… definite… no         <NA>         impo… "tha…
 9 AB     female Alberta     agree probably… no         <NA>         impo… "no" 
10 AB     female Alberta     stro… definite… yes        moderately … impo… "yes"
# ℹ 419 more rows
# ℹ 38 more variables: st_heard <chr>, st_descr <chr>, zed <chr>, spell <chr>,
#   spell_uni <chr>, distinct <chr>, same_ew <chr>, celebs <chr>,
#   prestige <chr>, rec_cdns <chr>, software <chr>, dictionary <chr>,
#   recog_eh <chr>, cdn_sorry <chr>, engl_able <chr>, fr_able <chr>,
#   ind_able <chr>, beyond_ef <chr>, cdn_way <chr>, age <int>, country <chr>,
#   edu_comp <fct>, degree_year <chr>, eui <chr>, dist_cult <chr>, eoi <chr>, …
…
